<svg width="15" height="20" viewBox="0 0 15 20" fill="none" xmlns="http://www.w3.org/2000/svg">
<path d="M14.4 12.8333C14.4 16.8332 11.2185 20 7.2 20C3.18131 20 0 16.8332 0 12.8333C0 8.83331 2.8464 4.66666 7.2 0C10.8838 4.33333 14.4 8.83331 14.4 12.8333Z" fill="#F44611"/>
</svg>
