<svg width="64" height="64" viewBox="0 0 64 64" fill="none" xmlns="http://www.w3.org/2000/svg">
<g clip-path="url(#clip0)">
<path d="M17.4696 63.233V60.1954C17.6259 59.728 18.0638 59.4124 18.5572 59.4129C19.1025 59.4154 19.7302 59.4179 20.3204 59.4209C20.4622 59.6091 20.6834 59.7215 20.9196 59.725L26.2518 59.8069H26.2813C27.701 59.8124 28.857 58.6658 28.8625 57.2457C28.868 55.826 27.7209 54.67 26.3012 54.6645H26.2508V52.1212H29.4013C29.8482 52.1212 30.2662 51.9015 30.5193 51.534C30.773 51.1659 30.829 50.697 30.6697 50.2796L28.1699 43.7314C28.1684 43.1037 28.1624 41.2986 28.1484 41.0723C27.7359 33.559 21.4789 27.7029 13.9546 27.7893C13.8332 27.7903 13.7129 27.7933 13.5925 27.7978C9.15719 27.9531 5.11587 30.386 2.9032 34.2331C0.621119 38.1241 0.501772 42.915 2.5871 46.9144C2.9771 47.8816 3.95835 50.4973 4.07819 51.6278V63.233C4.07819 63.6565 4.42125 64 4.84521 64H16.7025C17.126 64 17.4696 63.6565 17.4696 63.233ZM27.0233 56.5116C27.2166 56.7088 27.3224 56.975 27.3174 57.2507C27.307 57.8199 26.8411 58.2753 26.2718 58.2733L21.7091 58.2034L21.7381 56.199H26.2923C26.5679 56.201 26.8316 56.3138 27.0233 56.5116ZM13.9715 29.3234C14.019 29.3224 14.0664 29.3224 14.1143 29.3224C20.7698 29.3069 26.2688 34.5132 26.6163 41.1597C26.6253 41.316 26.6328 42.6753 26.6358 43.8753C26.6358 43.9681 26.6533 44.06 26.6863 44.1469L29.1451 50.5872H25.4838C25.0598 50.5872 24.7168 50.9307 24.7168 51.3542V54.6655H20.9826C20.5631 54.6655 20.2215 55.002 20.2155 55.421L20.2016 56.3723L17.5255 56.3558C15.4866 56.3348 13.8497 54.667 13.8662 52.6281L13.8771 51.476C16.0968 51.0426 17.7102 49.1146 17.7457 46.853L17.7527 46.3526C17.7841 44.0021 16.0998 41.9782 13.7828 41.5822V29.3284C13.8457 29.3259 13.9081 29.3239 13.9715 29.3234ZM13.0083 43.0483C13.8702 43.0563 14.6931 43.4074 15.2953 44.0231C15.8976 44.6393 16.2296 45.4702 16.2182 46.3316L16.2112 46.8325C16.1837 48.6027 14.7425 50.0244 12.9718 50.0284H12.9413C12.08 50.0199 11.257 49.6693 10.6548 49.0531C10.0525 48.4369 9.72047 47.6065 9.73196 46.7446L9.73845 46.2442C9.76541 44.4615 11.2255 43.0343 13.0083 43.0483ZM15.9585 59.9013C15.9435 59.9622 15.9355 60.0251 15.9355 60.088V62.466H5.61223V51.5889C5.61223 51.5654 5.61073 51.5415 5.60873 51.518C5.46442 49.9665 4.14561 46.6747 3.9958 46.3047C3.98631 46.2817 3.97582 46.2592 3.96434 46.2372C2.10722 42.6988 2.20709 38.4517 4.229 35.0041C5.93182 32.0449 8.87805 30.011 12.2487 29.4677V41.5702C9.94868 41.9312 8.24186 43.8952 8.20491 46.2238L8.19842 46.7241C8.16546 49.142 9.94568 51.2024 12.3426 51.5205L12.3326 52.6136C12.3092 55.4999 14.6272 57.8604 17.5135 57.8893L18.2755 57.8938C17.1575 58.0082 16.2306 58.8107 15.9585 59.9013Z" fill="#20214F"/>
<path d="M44.5855 7.68568H52.7815C53.205 7.68568 53.5485 7.34212 53.5485 6.91866C53.5485 6.4947 53.205 6.15164 52.7815 6.15164H44.5855C44.1615 6.15164 43.8185 6.4947 43.8185 6.91866C43.8185 7.34212 44.1615 7.68568 44.5855 7.68568Z" fill="#20214F"/>
<path d="M38.8032 7.68568H41.7145C42.1385 7.68568 42.4815 7.34212 42.4815 6.91866C42.4815 6.4947 42.1385 6.15164 41.7145 6.15164H38.8032C38.3793 6.15164 38.0362 6.4947 38.0362 6.91866C38.0362 7.34212 38.3793 7.68568 38.8032 7.68568Z" fill="#20214F"/>
<path d="M57.8931 6.15164H56.2916C55.8682 6.15164 55.5246 6.4947 55.5246 6.91866C55.5246 7.34212 55.8682 7.68568 56.2916 7.68568H57.8931C58.3165 7.68568 58.6601 7.34212 58.6601 6.91866C58.6601 6.4947 58.3165 6.15164 57.8931 6.15164Z" fill="#20214F"/>
<path d="M38.8032 12.6799H47.0112C47.4352 12.6799 47.7782 12.3363 47.7782 11.9128C47.7782 11.4889 47.4352 11.1458 47.0112 11.1458H38.8032C38.3793 11.1458 38.0362 11.4889 38.0362 11.9128C38.0362 12.3363 38.3793 12.6799 38.8032 12.6799Z" fill="#20214F"/>
<path d="M57.8925 11.1458H50.105C49.6815 11.1458 49.338 11.4889 49.338 11.9128C49.338 12.3363 49.6815 12.6799 50.105 12.6799H57.8925C58.316 12.6799 58.6596 12.3363 58.6596 11.9128C58.6596 11.4889 58.316 11.1458 57.8925 11.1458Z" fill="#20214F"/>
<path d="M38.8032 17.6739H41.8608C42.2843 17.6739 42.6278 17.3308 42.6278 16.9069C42.6278 16.4834 42.2843 16.1398 41.8608 16.1398H38.8032C38.3793 16.1398 38.0362 16.4834 38.0362 16.9069C38.0362 17.3308 38.3793 17.6739 38.8032 17.6739Z" fill="#20214F"/>
<path d="M57.8929 16.1398H44.9879C44.5639 16.1398 44.2209 16.4834 44.2209 16.9069C44.2209 17.3308 44.5639 17.6739 44.9879 17.6739H57.8929C58.3163 17.6739 58.6599 17.3308 58.6599 16.9069C58.6599 16.4834 58.3163 16.1398 57.8929 16.1398Z" fill="#20214F"/>
<path d="M59.2837 0H21.5639C19.526 0.0024968 17.8742 1.65388 17.8722 3.69227V24.6984C17.8742 26.7368 19.526 28.3882 21.5639 28.3907H29.8963V32.3945C29.8963 32.6902 30.0666 32.9593 30.3332 33.0867C30.6004 33.214 30.9165 33.1765 31.1462 32.9903L36.8189 28.3907H59.2837C61.322 28.3882 62.9734 26.7368 62.9759 24.6984V3.69227C62.9734 1.65388 61.322 0.0024968 59.2837 0V0ZM61.4419 24.6984C61.4404 25.8899 60.4751 26.8551 59.2837 26.8566H36.5473C36.3715 26.8566 36.2007 26.917 36.0644 27.0279L31.4303 30.7856V27.6241C31.4303 27.2007 31.0867 26.8571 30.6633 26.8571H21.5639C20.373 26.8561 19.4072 25.8904 19.4062 24.6989V3.69227C19.4072 2.5008 20.373 1.53553 21.5639 1.53404H59.2837C60.4751 1.53553 61.4404 2.5008 61.4419 3.69227V24.6984Z" fill="#20214F"/>
<path d="M39.3058 21.134H28.8452C28.4217 21.134 28.0782 21.4776 28.0782 21.901C28.0782 22.3245 28.4217 22.6681 28.8452 22.6681H39.3058C39.7292 22.6681 40.0728 22.3245 40.0728 21.901C40.0728 21.4776 39.7292 21.134 39.3058 21.134Z" fill="#20214F"/>
<path d="M25.8212 21.134H22.9728C22.5493 21.134 22.2058 21.4776 22.2058 21.901C22.2058 22.3245 22.5493 22.6681 22.9728 22.6681H25.8212C26.2446 22.6681 26.5882 22.3245 26.5882 21.901C26.5882 21.4776 26.2446 21.134 25.8212 21.134Z" fill="#20214F"/>
<path d="M57.8925 21.134H42.3029C41.8789 21.134 41.5359 21.4776 41.5359 21.901C41.5359 22.3245 41.8789 22.6681 42.3029 22.6681H57.8925C58.3159 22.6681 58.6595 22.3245 58.6595 21.901C58.6595 21.4776 58.3159 21.134 57.8925 21.134Z" fill="#20214F"/>
<path d="M26.0058 18.1322C27.034 18.8823 28.174 19.4645 29.384 19.858C29.5223 19.8985 29.6691 19.8995 29.8079 19.86C31.0513 19.47 32.2273 18.8898 33.2935 18.1397C35.633 16.4864 36.8689 14.2812 36.8689 11.7639V8.05614C36.8689 7.74954 36.6861 7.47189 36.404 7.35105L36.363 7.33357C34.1644 6.38728 32.086 5.18382 30.171 3.74816C29.8978 3.54342 29.5228 3.54342 29.2501 3.74816C27.3356 5.18382 25.2573 6.38678 23.0591 7.33307L23.0171 7.35105C22.735 7.47189 22.5517 7.74904 22.5517 8.05614V11.7639C22.5517 14.2762 23.7462 16.4784 26.0058 18.1322ZM24.0853 8.5575C26.0657 7.67064 27.9508 6.58403 29.7101 5.31365C31.4693 6.58403 33.3544 7.67064 35.3349 8.5575V11.7639C35.3399 12.5958 35.1591 13.4178 34.8055 14.1708C34.801 14.1708 34.796 14.1698 34.7911 14.1698C34.3676 14.1698 34.024 14.5134 34.024 14.9368V15.3278C34.024 15.3513 34.0255 15.3748 34.028 15.3977C33.5676 15.955 33.0343 16.4479 32.4426 16.8629C31.5687 17.4766 30.6134 17.9655 29.6047 18.315C28.6319 17.9645 27.7136 17.4776 26.8777 16.8689C26.3209 16.4639 25.8195 15.988 25.3856 15.4537C25.3931 15.4117 25.3966 15.3698 25.3971 15.3278V14.9368C25.3971 14.5134 25.0535 14.1698 24.6301 14.1698C24.6181 14.1698 24.6071 14.1713 24.5956 14.1718C24.255 13.4153 24.0813 12.5938 24.0863 11.7639L24.0853 8.5575Z" fill="#20214F"/>
<path d="M29.7093 16.0948C30.1328 16.0948 30.4764 15.7513 30.4764 15.3278V14.9368C30.4764 14.5134 30.1328 14.1698 29.7093 14.1698C29.2859 14.1698 28.9423 14.5134 28.9423 14.9368V15.3278C28.9423 15.7513 29.2859 16.0948 29.7093 16.0948Z" fill="#20214F"/>
<path d="M32.2518 16.0948C32.6752 16.0948 33.0188 15.7513 33.0188 15.3278V14.9368C33.0188 14.5134 32.6752 14.1698 32.2518 14.1698C31.8283 14.1698 31.4847 14.5134 31.4847 14.9368V15.3278C31.4847 15.7513 31.8283 16.0948 32.2518 16.0948Z" fill="#20214F"/>
<path d="M27.1703 16.0948C27.5943 16.0948 27.9373 15.7513 27.9373 15.3278V14.9368C27.9373 14.5134 27.5943 14.1698 27.1703 14.1698C26.7468 14.1698 26.4033 14.5134 26.4033 14.9368V15.3278C26.4033 15.7513 26.7468 16.0948 27.1703 16.0948Z" fill="#20214F"/>
</g>
<defs>
<clipPath id="clip0">
<rect width="64" height="64" fill="white"/>
</clipPath>
</defs>
</svg>
