<svg width="16" height="16" viewBox="0 0 16 16" fill="none" xmlns="http://www.w3.org/2000/svg">
<path d="M14.6662 11.28V13.28C14.667 13.4657 14.6289 13.6494 14.5545 13.8195C14.4802 13.9897 14.3711 14.1424 14.2343 14.2679C14.0974 14.3934 13.9359 14.489 13.76 14.5485C13.5841 14.6079 13.3978 14.63 13.2129 14.6133C11.1614 14.3904 9.19087 13.6894 7.45953 12.5666C5.84875 11.5431 4.48309 10.1774 3.45953 8.56665C2.33285 6.82745 1.6317 4.84731 1.41287 2.78665C1.39621 2.60229 1.41812 2.41649 1.4772 2.24107C1.53628 2.06564 1.63125 1.90444 1.75604 1.76773C1.88084 1.63102 2.03274 1.52179 2.20206 1.447C2.37138 1.37221 2.55443 1.33349 2.73953 1.33332H4.73953C5.06307 1.33013 5.37673 1.4447 5.62204 1.65567C5.86735 1.86664 6.02758 2.15961 6.07287 2.47998C6.15728 3.12003 6.31383 3.74847 6.53953 4.35332C6.62923 4.59193 6.64864 4.85126 6.59547 5.10057C6.5423 5.34988 6.41878 5.57872 6.23953 5.75998L5.39287 6.60665C6.3419 8.27568 7.72384 9.65761 9.39287 10.6066L10.2395 9.75998C10.4208 9.58074 10.6496 9.45722 10.8989 9.40405C11.1483 9.35087 11.4076 9.37029 11.6462 9.45998C12.251 9.68568 12.8795 9.84223 13.5195 9.92665C13.8434 9.97234 14.1391 10.1355 14.3506 10.385C14.562 10.6345 14.6743 10.953 14.6662 11.28Z" stroke="#F44611" stroke-linecap="round" stroke-linejoin="round"/>
</svg>
